[
  {
    "request": {
      "body": "",
      "headers": [],
      "method": "get",
      "options": {
        "connect_timeout": 120000
      },
      "request_body": "",
      "url": "https://cfdiau.sat.gob.mx/nidp/app/login?id=mat-ptsc-cont&sid=2&option=credential"
    },
    "response": {
      "body": "\n\n\n\n\n\n\n\n\n\n\n\n\n<!DOCTYPE html PUBLIC \"-//W3C//DTD HTML 4.01//ES\">\n<html lang=\"en\">\n\t<head>\n  \t  \t<META HTTP-EQUIV=\"Content-Language\" CONTENT=\"en\">\n\t  \t<meta http-equiv=\"content-type\" content=\"text/html;charset=utf-8\">\n\n\t\t<link rel=\"stylesheet\" type=\"text/css\"  href=\"/nidp/xac/style/style.css\" />\n\t\t<link rel=\"stylesheet\" type=\"text/css\" href=\"/nidp/xac/style/xacerror.css\" />\n\t\t<script type=\"text/javascript\" src=\"/nidp/xac/javascripts/jquery-1.6.4.min.js\"></script>\n\t\t<script type=\"text/javascript\" src=\"/nidp/xac/javascripts/pop-up-jquery.js\"></script>\n\n \t  \t<script type=\"text/javascript\" src=\"/nidp/images/showhide_2.js\"></script>\n\t  \t<script language=\"JavaScript\">\n\t\t\tvar i = 0;\n\t\t\tfunction imageSubmit()\n\t\t\t{\n  \t\t\t    if (i == 0)\n  \t\t\t    {\t\n     \t\t\t\t i = 1;\n     \t\t\t\t document.IDPLogin.submit();\n  \t\t\t    }\n  \n  \t\t\t    return false;\n\t\t\t}\n\t\t</script>\n    \t</head>\n\t<body>\n\t<script type=\"text/javascript\">\n\t\t$(function(e) {\n\t\t\tvar error = '';\n\t\t\tif (error != \"\" || error.length != 0)\n\t\t\t{\n\t\t\t\tdocument.getElementById(\"msgError\").innerHTML = error;\n\t\t\t\t$('#xacerror').bPopup();\n\t\t\t}\n\t\t});\t\t\t \n\t</script>\n      \t<form name=\"IDPLogin\" enctype=\"application/x-www-form-urlencoded\" method=\"POST\" style=\"width: 840px; position: absolute;\">\n\t\t\t<input type=\"hidden\" name=\"option\" value=\"credential\">\n\n\t\t<br>\n\t\t<div id=\"xacerror\">\n\t\t<a class=\"b-close\">x</a>\n\t\t<table border=\"0\">\n\t\t\t<tr>\n\t\t\t\t<td><img src=\"/nidp/xac/images/satLogoChico.jpg\" /></td>\n\t\t\t\t\t<td>&nbsp;</td>\n\t\t\t\t\t<td><p id=\"msgError\"></p></td>\n\t\t\t</tr>\n\t\t</table>\n\t</div>\t\n\t\t<br>\n\t\t<div style=\"width:840px; padding-top:10px\"align=\"center\">\n\t\t<table width=\"330\" bgcolor=\"ffffff\" cellpadding=\"0\" cellspacing=\"3\" border=\"0\">\n\t\t\t<tr>\n\t\t\t\t\t\t\t\t<td style=\"font-size:17px \"height=\"33\" colspan=\"2\" align=\"center\">\n\t\t\t\t\t\t\t\t\t<div style=\"font-size: 17px\">\n\t\t\t\t\t\t\t\t\t\t<p>\n\t\t\t\t\t\t\t\t\t\t\t<B>Acceso a los servicios electr&oacute;nicos </B>\n\t\t\t\t\t\t\t\t\t\t</p>\n\t\t\t\t\t\t\t\t\t</div>\n\t\t\t\t\t\t\t\t</td>\n\t\t\t\t\t\t\t</tr>\n\t\t\t\t\t\t\t<tr>\n\t\t\t\t\t\t\t\t<td width=\"26%\" height=\"47\" align=\"left\">\n\t\t\t\t\t\t\t\t\t<label><b>RFC</b></label>\n\t\t\t\t\t\t\t\t</td>\n\t\t\t\t\t\t\t\t<td width=\"74%\" align=\"left\">\n\t\t\t\t\t\t\t\t\t<input type=\"text\" name=\"Ecom_User_ID\" size=\"25\" value=\"\" class=\"cajatexto\" onblur=\"javascript:this.value = this.value.toUpperCase();\">\n\t\t\t\t\t\t\t\t</td>\n\t\t\t\t\t\t\t</tr>\n\t\t\t\t\t\t\t<tr>\n\t\t\t\t\t\t\t\t<td align=left>\n\t\t\t\t\t\t\t\t\t<label><b>Contrase&ntilde;a</b></label>\t\t\t\t\t\t\n\t\t\t\t\t\t\t\t</td>\t\t\t\t\t\t\t\n\t\t\t\t\t\t\t\t<td align=left>\n\t\t\t\t\t\t\t\t\t<input type=\"password\" name=\"Ecom_Password\" size=\"25\" class=\"cajatexto\" maxlength=\"16\">\n\t\t\t\t\t\t\t\t</td>\t\t\t\t\t\t\t\n\t\t\t\t\t\t\t</tr>\n\t\t\t\t\t\t\t<tr>\n                            <td colspan=\"2\" align=\"center\">&nbsp;</td>\n                        </tr>\n\t\t\t\t\t\t\t<tr>\n\t\t\t\t\t\t\t\t<td height=\"33\" colspan=\"2\" align=\"center\">\n\t\t\t\t\t\t\t\t\t<input type=\"submit\" value=\"Enviar\" id=\"submit\" name=\"submit\" />\n\t\t\t\t\t\t\t\t</td>\t\t\t\t\t\t\t\n\t\t\t\t\t\t\t</tr>\n\n<tr>\n<td height=\"45\" colspan=\"2\" align=\"center\">\n<div class=\"contrasena\">\n<a href=\"https://www.siat.sat.gob.mx/PTSC/auth/faces/pages/restablecer/rc_inicio.jsf\">¿Olvidaste tu Contraseña?</a>\n</div>\n</td>\n</tr>\n<tr>\n<td height=\"45\" colspan=\"2\" align=\"center\">\n<div class=\"contrasena\">\nSi a&uacute;n no cuentas con tu Contrase&ntilde;a, obtenla <a href=\"https://portalsat.plataforma.sat.gob.mx/CIECInternet/CIECRegister/askRFC.action\">aqu&iacute;</a>.\n</div>\n</td>\n</tr>\n\t      \t</table>\n\t\t</div>\n   \t</form>\n</body>\n</html>\n",
      "headers": {
        "Server": "Apache-Coyote/1.1",
        "Set-Cookie": "JSESSIONID=9C350C2B05F169B78833857B9F2BABBA; Path=/nidp/; Secure; HttpOnly",
        "Pragma": "No-cache",
        "Cache-Control": "no-cache",
        "Content-Type": "text/html;charset=UTF-8",
        "Content-Length": "3331",
        "Date": "Fri, 24 Feb 2017 07:37:34 GMT"
      },
      "status_code": 200,
      "type": "ok"
    }
  },
  {
    "request": {
      "body": "Ecom_User_ID=HELLO&Ecom_Password=password&option=credential&submit=Enviar",
      "headers": {
        "User-Agent": "Mozilla/5.0 (Android; Mobile; rv:13.0) Gecko/13.0 Firefox/13.0",
        "Content-type": "application/x-www-form-urlencoded"
      },
      "method": "post",
      "options": {
        "connect_timeout": 120000,
        "cookie": "F5-PRO-CFDIAU-443=rd3o00000000000000000000ffff0a3834c6o443; JSESSIONID=9C350C2B05F169B78833857B9F2BABBA; UrnNovellNidpClusterMemberId=~03~02fbf~1B~17~14ps~7B~09; bbbbbbbbbbbbbbb=BLNBKAIBFACHNGMAELAMDOEGCLDIFCNGNOEEIHNDBEBDKCANOEMCEMIKPLOANGIGDCKOLJGKEDBCBJJFHOHIGEKCCBJEOJIKADCAOBFCAAOMEIBEJBLMAGHLBABADFGF"
      },
      "request_body": "",
      "url": "https://cfdiau.sat.gob.mx/nidp/app/login?id=mat-ptsc-cont&sid=2&option=credential"
    },
    "response": {
      "body": "\n\n\n\n\n\n\n\n\n\n\n\n\n<!DOCTYPE html PUBLIC \"-//W3C//DTD HTML 4.01//ES\">\n<html lang=\"en\">\n\t<head>\n  \t  \t<META HTTP-EQUIV=\"Content-Language\" CONTENT=\"en\">\n\t  \t<meta http-equiv=\"content-type\" content=\"text/html;charset=utf-8\">\n\n\t\t<link rel=\"stylesheet\" type=\"text/css\"  href=\"/nidp/xac/style/style.css\" />\n\t\t<link rel=\"stylesheet\" type=\"text/css\" href=\"/nidp/xac/style/xacerror.css\" />\n\t\t<script type=\"text/javascript\" src=\"/nidp/xac/javascripts/jquery-1.6.4.min.js\"></script>\n\t\t<script type=\"text/javascript\" src=\"/nidp/xac/javascripts/pop-up-jquery.js\"></script>\n\n \t  \t<script type=\"text/javascript\" src=\"/nidp/images/showhide_2.js\"></script>\n\t  \t<script language=\"JavaScript\">\n\t\t\tvar i = 0;\n\t\t\tfunction imageSubmit()\n\t\t\t{\n  \t\t\t    if (i == 0)\n  \t\t\t    {\t\n     \t\t\t\t i = 1;\n     \t\t\t\t document.IDPLogin.submit();\n  \t\t\t    }\n  \n  \t\t\t    return false;\n\t\t\t}\n\t\t</script>\n    \t</head>\n\t<body>\n\t<script type=\"text/javascript\">\n\t\t$(function(e) {\n\t\t\tvar error = 'El RFC o contraseña son incorrectos. Verifique su información e inténtelo de nuevo.';\n\t\t\tif (error != \"\" || error.length != 0)\n\t\t\t{\n\t\t\t\tdocument.getElementById(\"msgError\").innerHTML = error;\n\t\t\t\t$('#xacerror').bPopup();\n\t\t\t}\n\t\t});\t\t\t \n\t</script>\n      \t<form name=\"IDPLogin\" enctype=\"application/x-www-form-urlencoded\" method=\"POST\" style=\"width: 840px; position: absolute;\">\n\t\t\t<input type=\"hidden\" name=\"option\" value=\"credential\">\n\n\t\t<br>\n\t\t<div id=\"xacerror\">\n\t\t<a class=\"b-close\">x</a>\n\t\t<table border=\"0\">\n\t\t\t<tr>\n\t\t\t\t<td><img src=\"/nidp/xac/images/satLogoChico.jpg\" /></td>\n\t\t\t\t\t<td>&nbsp;</td>\n\t\t\t\t\t<td><p id=\"msgError\"></p></td>\n\t\t\t</tr>\n\t\t</table>\n\t</div>\t\n\t\t<br>\n\t\t<div style=\"width:840px; padding-top:10px\"align=\"center\">\n\t\t<table width=\"330\" bgcolor=\"ffffff\" cellpadding=\"0\" cellspacing=\"3\" border=\"0\">\n\t\t\t<tr>\n\t\t\t\t\t\t\t\t<td style=\"font-size:17px \"height=\"33\" colspan=\"2\" align=\"center\">\n\t\t\t\t\t\t\t\t\t<div style=\"font-size: 17px\">\n\t\t\t\t\t\t\t\t\t\t<p>\n\t\t\t\t\t\t\t\t\t\t\t<B>Acceso a los servicios electr&oacute;nicos </B>\n\t\t\t\t\t\t\t\t\t\t</p>\n\t\t\t\t\t\t\t\t\t</div>\n\t\t\t\t\t\t\t\t</td>\n\t\t\t\t\t\t\t</tr>\n\t\t\t\t\t\t\t<tr>\n\t\t\t\t\t\t\t\t<td width=\"26%\" height=\"47\" align=\"left\">\n\t\t\t\t\t\t\t\t\t<label><b>RFC</b></label>\n\t\t\t\t\t\t\t\t</td>\n\t\t\t\t\t\t\t\t<td width=\"74%\" align=\"left\">\n\t\t\t\t\t\t\t\t\t<input type=\"text\" name=\"Ecom_User_ID\" size=\"25\" value=\"HELLO\" class=\"cajatexto\" onblur=\"javascript:this.value = this.value.toUpperCase();\">\n\t\t\t\t\t\t\t\t</td>\n\t\t\t\t\t\t\t</tr>\n\t\t\t\t\t\t\t<tr>\n\t\t\t\t\t\t\t\t<td align=left>\n\t\t\t\t\t\t\t\t\t<label><b>Contrase&ntilde;a</b></label>\t\t\t\t\t\t\n\t\t\t\t\t\t\t\t</td>\t\t\t\t\t\t\t\n\t\t\t\t\t\t\t\t<td align=left>\n\t\t\t\t\t\t\t\t\t<input type=\"password\" name=\"Ecom_Password\" size=\"25\" class=\"cajatexto\" maxlength=\"16\">\n\t\t\t\t\t\t\t\t</td>\t\t\t\t\t\t\t\n\t\t\t\t\t\t\t</tr>\n\t\t\t\t\t\t\t<tr>\n                            <td colspan=\"2\" align=\"center\">&nbsp;</td>\n                        </tr>\n\t\t\t\t\t\t\t<tr>\n\t\t\t\t\t\t\t\t<td height=\"33\" colspan=\"2\" align=\"center\">\n\t\t\t\t\t\t\t\t\t<input type=\"submit\" value=\"Enviar\" id=\"submit\" name=\"submit\" />\n\t\t\t\t\t\t\t\t</td>\t\t\t\t\t\t\t\n\t\t\t\t\t\t\t</tr>\n\n<tr>\n<td height=\"45\" colspan=\"2\" align=\"center\">\n<div class=\"contrasena\">\n<a href=\"https://www.siat.sat.gob.mx/PTSC/auth/faces/pages/restablecer/rc_inicio.jsf\">¿Olvidaste tu Contraseña?</a>\n</div>\n</td>\n</tr>\n<tr>\n<td height=\"45\" colspan=\"2\" align=\"center\">\n<div class=\"contrasena\">\nSi a&uacute;n no cuentas con tu Contrase&ntilde;a, obtenla <a href=\"https://portalsat.plataforma.sat.gob.mx/CIECInternet/CIECRegister/askRFC.action\">aqu&iacute;</a>.\n</div>\n</td>\n</tr>\n\t      \t</table>\n\t\t</div>\n   \t</form>\n</body>\n</html>\n",
      "headers": {
        "Server": "Apache-Coyote/1.1",
        "via-ESP": "null,NIDPLOGGING.600105004 session33-9C350C2B05F169B78833857B9F2BABBA",
        "Pragma": "No-cache",
        "Cache-Control": "no-cache",
        "Content-Type": "text/html;charset=UTF-8",
        "Content-Length": "3422",
        "Date": "Fri, 24 Feb 2017 07:37:34 GMT"
      },
      "status_code": 200,
      "type": "ok"
    }
  }
]